{
    "$schema": "http://json-schema.org/draft-07/schema#",
    "additionalProperties": false,
    "$id": "listToTweet",
    "properties": {
      "list_id": {
        "type": "string",
        "minLength": 36,
        "maxLength": 36,
        "format": "uuid"
      },
      "tweet_id": {
        "type": "string",
        "maxLength": 32
      },
      "last_update": {
        "type": "number",
        "minimum": 0,
        "maximum": 2701307494132,
        "multipleOf": 1
      },
      "_deleted": {
        "type": "boolean"
      }
    },
    "required": ["list_id", "tweet_id"],
    "type": "object"
  }
  