{
  "version": 0,
  "primaryKey": {
    "key": "id",
    "fields": ["tweet_id", "user_id"]
  },
  "properties": {
    "id": {
      "type": "string",
      "maxLength": 70
    },
    "tweet_id": {
      "type": "string",
      "maxLength": 32
    },
    "user_id": {
      "type": "string",
      "maxLength": 32
    },
    "last_update": {
      "type": "number",
      "minimum": 0,
      "maximum": 2701307494132,
      "multipleOf": 1
    }
  },
  "required": ["tweet_id", "user_id"]
}
